Assignment 2
…
library(ggplot2)
data<-read_xls("/home/idil/İndirilenler/ptf-smf.xls")

We are looking for MCP which is greater than 300 and SMP which is smaller than 300. Then we sort MCP descending order according to date. We then grouped the data with date.

#filtering data
data %>%
  filter(MCP>300&SMP<300)%>%
  group_by(Date)%>%
  arrange("MCP",desc(Date))

## # A tibble: 47 x 6
## # Groups:   Date [47]
##    Date    MCP    SMP    `Positive Imbalanc… `Negative Imbalanc… `SMP Direction`
##    <chr>   <chr>  <chr>  <chr>               <chr>               <chr>          
##  1 30.09.… 309.71 224.00 217.28              319.00              ↓Energy Surplus
##  2 30.09.… 391.04 229.00 222.13              402.77              ↓Energy Surplus
##  3 30.09.… 410.00 250.00 242.50              422.30              ↓Energy Surplus
##  4 30.09.… 409.99 229.00 222.13              422.29              ↓Energy Surplus
##  5 30.09.… 410.00 250.00 242.50              422.30              ↓Energy Surplus
##  6 30.09.… 313.36 214.00 207.58              322.76              ↓Energy Surplus
##  7 30.09.… 311.68 218.18 211.63              321.03              ↓Energy Surplus
##  8 29.09.… 306.95 212.12 205.76              316.16              ↓Energy Surplus
##  9 29.09.… 313.76 202.12 196.06              323.17              ↓Energy Surplus
## 10 29.09.… 317.76 212.12 205.76              327.29              ↓Energy Surplus
## # … with 37 more rows
…
